<svg xmlns="http://www.w3.org/2000/svg" width="512" height="512" style="overflow: visible;" viewBox="0 0 512 512"
     data-svgdocument="" id="_5vF2irJteTvpSndOnBk1N" class="fl-svgdocument" x="0" y="0"
     xmlns:xlink="http://www.w3.org/1999/xlink" overflow="hidden">
    <defs id="_4rQRrS8VwXwkbPR676RN2"
          transform="matrix(0.7749416828155518, 0, 0, 0.7749416828155518, -49.57767868041992, 156.66073608398438)"
          data-uid="o_emd981hn6_4"></defs>
    <path text="Lodge" text-anchor="middle" font-size="100" letter-spacing="0" side="left" offset="0.5" dx="0" dy="0"
          space="preserve" href="" font-family="Vast Shadow" font-scale="contain"
          transform="matrix(0.6956377029418945, 0, 0, 0.8679413199424744, 255.3563690185547, 288.9865417480469)" x="0"
          y="0" fill="#000000" data-fl-textpath="" id="_6PzW6Hs1ukS2GtWBNacd3" data-uid="o_emd981hn6_5"
          d="M-196.8775 0L-196.8775-7.81L-184.1775-7.81L-184.1775-52.98L-197.7075-52.98L-197.7075-60.79L-159.4275-60.79L-159.4275-52.98L-173.0975-52.98L-173.0975-7.81L-139.1575-7.81L-139.1575-21.97L-128.1775-21.97L-128.1775 0L-196.8775 0ZM-169.5775-10.74L-169.5775-49.07L-155.9575-49.07L-155.9575-58.35L-154.0075-58.35L-154.0075-47.22L-167.6275-47.22L-167.6275-10.74L-169.5775-10.74ZM-194.7775-47.22L-194.7775-49.07L-186.2275-49.07L-186.2275-47.22L-194.7775-47.22ZM-193.9475 3.42L-124.6575 3.42L-124.6575-19.24L-122.7075-19.24L-122.7075 5.27L-193.9475 5.27L-193.9475 3.42ZM-111.616328125-22.8L-111.616328125-22.8Q-111.616328125-28.13 -109.326328125-32.84Q-107.02632812499999-37.55 -102.906328125-41.04Q-98.77632812499999-44.53 -93.016328125-46.56Q-87.256328125-48.58 -80.366328125-48.58L-80.366328125-48.58Q-73.146328125-48.58 -67.456328125-46.66Q-61.766328125-44.73 -57.836328125-41.31Q-53.906328125-37.89 -51.826328125-33.2Q-49.756328124999996-28.52 -49.756328124999996-23L-49.756328124999996-23Q-49.756328124999996-17.68 -52.026328125000006-13.18Q-54.296328125-8.69 -58.476328125-5.44Q-62.646328125-2.2 -68.486328125-0.37Q-74.316328125 1.46 -81.49632812499999 1.46L-81.49632812499999 1.46Q-88.27632812499999 1.46 -93.826328125-0.56Q-99.366328125-2.59 -103.316328125-5.96Q-107.27632812499999-9.33 -109.446328125-13.7Q-111.616328125-18.07 -111.616328125-22.8ZM-103.956328125-2.25L-103.956328125-2.25Q-99.216328125 1.17 -93.486328125 3.03Q-87.746328125 4.88 -80.516328125 4.88L-80.516328125 4.88Q-73.77632812499999 4.88 -67.576328125 3.05Q-61.376328125 1.22 -56.636328125-2.34Q-51.906328125-5.91 -49.076328125-11.11Q-46.236328125-16.31 -46.236328125-23L-46.236328125-23Q-46.236328125-26.27 -47.146328125-29.61Q-48.046328125-32.96 -49.686328125-36.04Q-51.316328125-39.11 -53.666328125-41.77Q-56.006328125-44.43 -58.886328125-46.29L-58.886328125-46.29Q-55.616328125-44.82 -52.906328125-42.43Q-50.196328124999994-40.04 -48.286328125-36.99Q-46.386328125000006-33.94 -45.336328124999994-30.37Q-44.286328125-26.81 -44.286328125-23L-44.286328125-23Q-44.286328125-18.21 -45.656328125-14.14Q-47.026328125000006-10.06 -49.436328125-6.76Q-51.856328125000005-3.47 -55.196328125-0.93Q-58.546328125 1.61 -62.546328125 3.3Q-66.556328125 4.98 -71.066328125 5.86Q-75.586328125 6.74 -80.27632812499999 6.74L-80.27632812499999 6.74Q-84.176328125 6.74 -87.746328125 6.13Q-91.306328125 5.52 -94.356328125 4.37Q-97.416328125 3.22 -99.856328125 1.56Q-102.296328125-0.1 -103.956328125-2.25ZM-100.77632812499999-23L-100.77632812499999-23Q-100.77632812499999-19.24 -99.336328125-16.14Q-97.896328125-13.04 -95.266328125-10.82Q-92.626328125-8.59 -88.936328125-7.37Q-85.256328125-6.15 -80.766328125-6.15L-80.766328125-6.15Q-76.21632812499999-6.15 -72.50632812500001-7.4Q-68.796328125-8.64 -66.116328125-10.86Q-63.426328125-13.09 -61.966328125-16.19Q-60.496328125-19.29 -60.496328125-23L-60.496328125-23Q-60.496328125-26.66 -61.966328125-29.91Q-63.426328125-33.15 -66.066328125-35.62Q-68.69632812500001-38.09 -72.386328125-39.53Q-76.076328125-40.97 -80.516328125-40.97L-80.516328125-40.97Q-85.156328125-40.97 -88.896328125-39.58Q-92.626328125-38.18 -95.266328125-35.77Q-97.896328125-33.35 -99.336328125-30.08Q-100.77632812499999-26.81 -100.77632812499999-23ZM-97.366328125-22.8L-97.366328125-22.8Q-97.366328125-25.88 -96.146328125-28.59Q-94.926328125-31.3 -92.69632812500001-33.28Q-90.476328125-35.25 -87.376328125-36.4Q-84.27632812499999-37.55 -80.516328125-37.55L-80.516328125-37.55Q-78.126328125-37.55 -75.876328125-37.04Q-73.636328125-36.52 -71.72632812500001-35.55Q-69.826328125-34.57 -68.356328125-33.18Q-66.896328125-31.79 -66.016328125-30.03L-66.016328125-30.03Q-69.236328125-32.96 -72.72632812500001-34.33Q-76.21632812499999-35.69 -80.616328125-35.69L-80.616328125-35.69Q-83.786328125-35.69 -86.476328125-34.67Q-89.156328125-33.64 -91.166328125-31.88Q-93.166328125-30.13 -94.286328125-27.78Q-95.406328125-25.44 -95.406328125-22.8L-95.406328125-22.8Q-95.406328125-20.61 -94.876328125-18.7Q-94.336328125-16.8 -93.046328125-15.16Q-91.746328125-13.53 -89.596328125-12.21Q-87.44632812500001-10.89 -84.22632812500001-9.86L-84.22632812500001-9.86Q-87.156328125-10.06 -89.576328125-11.11Q-91.996328125-12.16 -93.726328125-13.87Q-95.456328125-15.58 -96.406328125-17.87Q-97.366328125-20.17 -97.366328125-22.8ZM-33.051875-22.9L-33.051875-22.9Q-33.051875-27.44 -31.151875-31.86Q-29.251875-36.28 -25.511875-39.77Q-21.781875-43.26 -16.261875-45.43Q-10.741875-47.61 -3.5618750000000006-47.61L-3.5618750000000006-47.61Q-1.2718750000000014-47.61  1.338124999999998-47.27Q 3.9581250000000026-46.92  6.568125000000002-46.14Q 9.178125000000001-45.36  11.668125000000003-44.07Q 14.158124999999998-42.77  16.208125000000003-40.92L 16.208125000000003-40.92L 16.208125000000003-60.3L 5.468125000000001-60.3L 5.468125000000001-68.12L 26.708124999999995-68.12L 26.708124999999995-7.32L 35.00812500000001-7.32L 35.00812500000001 0L 16.208125000000003 0L 16.208125000000003-6.2Q 12.398125-2.49  7.028125000000003-0.51Q 1.6581249999999983 1.46 -4.641874999999999 1.46L-4.641874999999999 1.46Q-10.641874999999999 1.46 -15.821874999999999-0.12Q-20.991875-1.71 -24.831875-4.79Q-28.661875000000002-7.86 -30.861875-12.4Q-33.051875-16.94 -33.051875-22.9ZM 30.228125000000006-10.25L 30.228125000000006-65.63L 32.178124999999994-65.63L 32.178124999999994-10.25L 30.228125000000006-10.25ZM 8.398125-55.03L 8.398125-56.88L 14.158124999999998-56.88L 14.158124999999998-55.03L 8.398125-55.03ZM-22.461875-23.29L-22.461875-23.29Q-22.461875-19.34 -21.171875-16.16Q-19.871875-12.99 -17.451875-10.74Q-15.041875000000001-8.5 -11.591875000000002-7.28Q-8.151875-6.05 -3.8118750000000006-6.05L-3.8118750000000006-6.05Q-1.5118750000000034-6.05  0.8581250000000011-6.52Q 3.2181250000000006-6.98  5.448124999999997-7.93Q 7.668125000000003-8.89  9.648125-10.33Q 11.618125-11.77  13.058124999999997-13.75Q 14.498125000000002-15.72  15.358125000000001-18.26Q 16.208125000000003-20.8  16.208125000000003-23.93L 16.208125000000003-23.93Q 16.208125000000003-27.39  14.598125000000003-30.35Q 12.988124999999997-33.3  10.278125000000003-35.45Q 7.568125000000002-37.6  3.9581250000000026-38.82Q 0.338124999999998-40.04 -3.661875000000002-40.04L-3.661875000000002-40.04Q-7.571874999999999-40.04 -10.981874999999999-38.82Q-14.401875-37.6 -16.971875-35.4Q-19.531875-33.2 -20.991875-30.1Q-22.461875-27 -22.461875-23.29ZM-19.041875-23.29L-19.041875-23.29Q-19.041875-26.07 -17.941875-28.47Q-16.841875-30.86 -14.841875000000002-32.67Q-12.841875000000002-34.47 -9.981874999999999-35.5Q-7.131875000000001-36.52 -3.661875000000002-36.52L-3.661875000000002-36.52Q 1.318125000000002-36.52  4.738124999999997-35.06Q 8.158124999999998-33.59  9.378124999999997-31.4L 9.378124999999997-31.4Q 6.738124999999997-33.11  3.4381249999999994-33.89Q 0.14812500000000028-34.67 -3.661875000000002-34.67L-3.661875000000002-34.67Q-6.741875-34.67 -9.201875000000001-33.76Q-11.671875-32.86 -13.401875-31.3Q-15.131875-29.74 -16.091875-27.61Q-17.041875-25.49 -17.041875-23.1L-17.041875-23.1Q-17.041875-13.87 -6.641874999999999-9.52L-6.641874999999999-9.52Q-9.621875-9.86 -11.911874999999998-11.08Q-14.211875-12.3 -15.791875000000001-14.14Q-17.381875-15.97 -18.211875-18.31Q-19.041875-20.65 -19.041875-23.29ZM 19.138125000000002 3.42L 38.528125 3.42L 38.528125-4.59L 40.478125000000006-4.59L 40.478125000000006 5.27L 19.138125000000002 5.27L 19.138125000000002 3.42ZM-26.761875-2.1L-26.761875-2.1Q-24.751875-0.49 -22.211875 0.81Q-19.681875 2.1 -16.791875 3Q-13.911874999999998 3.91 -10.811875 4.39Q-7.711874999999999 4.88 -4.591875000000002 4.88L-4.591875000000002 4.88Q 0.828125 4.88  5.538125000000001 3.54Q 10.258125 2.2  13.918125000000003-0.2L 13.918125000000003-0.2L 13.918125000000003 2.05Q 10.258125 4.25  5.448124999999997 5.49Q 0.6381250000000023 6.74 -4.541874999999997 6.74L-4.541874999999997 6.74Q-12.451875000000001 6.74 -18.061875 4.52Q-23.681874999999998 2.29 -26.761875-2.1ZM 50.926484375 14.94L 56.396484375 8.54Q 58.786484375 11.04  61.746484375 12.72Q 64.696484375 14.4  67.746484375 15.43Q 70.796484375 16.46  73.726484375 16.89Q 76.65648437499999 17.33  79.006484375 17.33L 79.006484375 17.33Q 83.596484375 17.33  87.256484375 16.48Q 90.91648437500001 15.63  93.476484375 13.38Q 96.046484375 11.13  97.41648437500001 7.23Q 98.776484375 3.32  98.776484375-2.83L 98.776484375-2.83L 98.776484375-7.23Q 96.926484375-5.47  94.576484375-4.05Q 92.236484375-2.64  89.546484375-1.61Q 86.866484375-0.59  83.90648437499999-0.05Q 80.956484375 0.49  77.926484375 0.49L 77.926484375 0.49Q 71.096484375 0.49  65.796484375-1.22Q 60.496484375-2.93  56.886484375-6.08Q 53.276484375-9.23  51.396484375-13.72Q 49.516484375-18.21  49.516484375-23.78L 49.516484375-23.78Q 49.516484375-26.81  50.386484375-29.81Q 51.266484375-32.81  53.006484375-35.57Q 54.736484375-38.33  57.296484375-40.7Q 59.866484375-43.07  63.186484375-44.82Q 66.506484375-46.58  70.60648437500001-47.58Q 74.706484375-48.58  79.496484375-48.58L 79.496484375-48.58Q 81.736484375-48.58  84.306484375-48.17Q 86.866484375-47.75  89.40648437499999-46.88Q 91.946484375-46  94.35648437500001-44.6Q 96.776484375-43.21  98.776484375-41.26L 98.776484375-41.26L 98.776484375-47.12L 119.776484375-47.12L 119.776484375-38.82L 109.036484375-38.82L 109.036484375-2.83Q 109.036484375 5.03  106.836484375 10.35Q 104.63648437500001 15.67  100.68648437499999 18.9Q 96.726484375 22.12  91.286484375 23.51Q 85.836484375 24.9  79.346484375 24.9L 79.346484375 24.9Q 75.536484375 24.9  71.536484375 24.32Q 67.526484375 23.73  63.746484375 22.53Q 59.956484375 21.34  56.636484375 19.46Q 53.316484375 17.58  50.926484375 14.94L 50.926484375 14.94ZM 53.806484375 21.73L 53.806484375 21.73Q 56.246484375 23.49  59.326484375 24.76Q 62.406484375000005 26.03  65.776484375 26.81Q 69.136484375 27.59  72.60648437500001 27.95Q 76.076484375 28.32  79.346484375 28.32L 79.346484375 28.32Q 83.786484375 28.32  87.986484375 27.66Q 92.18648437499999 27  95.87648437499999 25.54Q 99.556484375 24.07  102.63648437500001 21.68Q 105.716484375 19.29  107.906484375 15.8Q 110.106484375 12.3  111.326484375 7.64Q 112.546484375 2.98  112.546484375-3.08L 112.546484375-3.08L 112.546484375-35.4L 123.286484375-35.4L 123.286484375-44.38L 125.246484375-44.38L 125.246484375-33.54L 114.506484375-33.54L 114.506484375-3.08Q 114.506484375 3.27  113.236484375 8.2Q 111.966484375 13.13  109.666484375 16.85Q 107.37648437499999 20.56  104.146484375 23.1Q 100.926484375 25.63  97.026484375 27.2Q 93.116484375 28.76  88.62648437499999 29.47Q 84.12648437499999 30.18  79.346484375 30.18L 79.346484375 30.18Q 75.636484375 30.18  71.776484375 29.59Q 67.916484375 29  64.476484375 27.91Q 61.036484375 26.81  58.226484375 25.24Q 55.416484374999996 23.68  53.806484375 21.73ZM 60.106484375-24.17L 60.106484375-24.17Q 60.106484375-20.41  61.306484375-17.26Q 62.496484375-14.11  64.866484375-11.84Q 67.236484375-9.57  70.726484375-8.3Q 74.216484375-7.03  78.756484375-7.03L 78.756484375-7.03Q 82.37648437499999-7.03  85.966484375-7.93Q 89.546484375-8.84  92.40648437499999-10.89Q 95.266484375-12.94  97.026484375-16.26Q 98.776484375-19.58  98.776484375-24.41L 98.776484375-24.41Q 98.776484375-27.88  97.266484375-30.91Q 95.756484375-33.94  93.116484375-36.18Q 90.476484375-38.43  86.93648437499999-39.72Q 83.396484375-41.02  79.396484375-41.02L 79.396484375-41.02Q 75.486484375-41.02  71.996484375-39.79Q 68.506484375-38.57  65.866484375-36.33Q 63.236484375-34.08  61.666484374999996-30.98Q 60.106484375-27.88  60.106484375-24.17ZM 63.526484374999995-24.07L 63.526484374999995-24.07Q 63.526484374999995-26.86  64.696484375-29.32Q 65.866484375-31.79  67.966484375-33.62Q 70.066484375-35.45  72.996484375-36.52Q 75.926484375-37.6  79.396484375-37.6L 79.396484375-37.6Q 84.036484375-37.6  87.086484375-36.11Q 90.13648437500001-34.62  91.896484375-32.32L 91.896484375-32.32Q 90.726484375-33.06  89.476484375-33.69Q 88.236484375-34.33  86.746484375-34.79Q 85.256484375-35.25  83.446484375-35.52Q 81.63648437500001-35.79  79.396484375-35.79L 79.396484375-35.79Q 76.316484375-35.79  73.776484375-34.84Q 71.236484375-33.89  69.406484375-32.28Q 67.576484375-30.66  66.576484375-28.59Q 65.576484375-26.51  65.576484375-24.27L 65.576484375-24.27Q 65.576484375-19.48  67.846484375-16.09Q 70.116484375-12.7  75.386484375-10.6L 75.386484375-10.6Q 72.85648437500001-10.84  70.676484375-11.91Q 68.506484375-12.99  66.916484375-14.75Q 65.336484375-16.5  64.426484375-18.87Q 63.526484374999995-21.24  63.526484374999995-24.07ZM 55.416484374999996-3.08L 55.416484374999996-3.08Q 57.426484375-1.46  60.036484375-0.17Q 62.646484375 1.12  65.596484375 2.03Q 68.556484375 2.93  71.706484375 3.42Q 74.85648437500001 3.91  77.976484375 3.91L 77.976484375 3.91Q 83.396484375 3.91  88.10648437500001 2.61Q 92.826484375 1.32  96.486484375-1.07L 96.486484375-1.07L 96.18648437499999 1.37Q 92.526484375 3.56  87.866484375 4.66Q 83.206484375 5.76  78.026484375 5.76L 78.026484375 5.76Q 70.116484375 5.76  64.306484375 3.54Q 58.496484375 1.32  55.416484374999996-3.08ZM 134.03796875-22.66L 134.03796875-22.66Q 134.03796875-27.83  135.93796875-32.52Q 137.83796875-37.21  141.64796875-40.77Q 145.45796875-44.34  151.12796875-46.46Q 156.78796875-48.58  164.25796875-48.58L 164.25796875-48.58Q 171.28796875-48.58  176.80796875-46.7Q 182.32796875-44.82  186.17796875-41.26Q 190.03796875-37.7  192.06796875-32.54Q 194.08796875000002-27.39  194.08796875000002-20.8L 194.08796875000002-20.8L 144.72796875-20.8Q 145.16796875-17.29  146.99796874999998-14.55Q 148.82796875-11.82  151.65796875-9.94Q 154.48796875-8.06  158.07796875-7.08Q 161.66796875-6.1  165.57796875-6.1L 165.57796875-6.1Q 168.74796874999998-6.1  172.04796875-6.62Q 175.33796875000002-7.13  178.26796875-8.01Q 181.19796875-8.89  183.49796874999998-9.99Q 185.78796875-11.08  187.00796875-12.26L 187.00796875-12.26L 188.86796875-12.26L 193.45796875000002-7.28Q 188.42796875-2.98  181.22796875-0.76Q 174.02796875 1.46  165.32796875 1.46L 165.32796875 1.46Q 157.76796875 1.46  151.92796875-0.39Q 146.09796875-2.25  142.11796875-5.52Q 138.13796875-8.79  136.08796875-13.18Q 134.03796875-17.58  134.03796875-22.66ZM 149.41796875-17.38L 197.40796875-17.38Q 197.50796875-18.12  197.55796875-18.97Q 197.60796875-19.82  197.60796875-20.8L 197.60796875-20.8Q 197.60796875-24.95  196.74796874999998-28.74Q 195.89796875000002-32.52  194.25796875-35.77Q 192.62796874999998-39.01  190.23796875-41.7Q 187.83796875000002-44.38  184.81796875-46.29L 184.81796875-46.29Q 188.03796875-45.02  190.74796874999998-42.8Q 193.45796875000002-40.58  195.40796875-37.4Q 197.36796875-34.23  198.45796875000002-30.08Q 199.55796875-25.93  199.55796875-20.8L 199.55796875-20.8Q 199.55796875-20.41  199.53796875-19.82Q 199.50796875-19.24  199.45796875000002-18.51Q 199.41796875-17.77  199.33796875000002-17.02Q 199.26796875-16.26  199.16796875-15.53L 199.16796875-15.53L 153.02796875-15.53Q 153.95796875-13.96  156.44796875-12.33Q 158.93796875-10.69  162.88796875-9.57L 162.88796875-9.57Q 160.44796875-9.57  158.32796875-10.16Q 156.19796875-10.74  154.46796875-11.77Q 152.73796875-12.79  151.43796875-14.23Q 150.14796875-15.67  149.41796875-17.38L 149.41796875-17.38ZM 145.01796875-26.9L 182.80796875-26.9Q 182.02796875-30.27  180.39796875-32.91Q 178.75796875-35.55  176.36796875-37.33Q 173.97796875-39.11  170.89796875-40.06Q 167.81796875-41.02  164.15796875-41.02L 164.15796875-41.02Q 160.20796875-41.02  156.95796875-39.97Q 153.70796875-38.92  151.26796875-37.04Q 148.82796875-35.16  147.23796875-32.57Q 145.65796875-29.98  145.01796875-26.9L 145.01796875-26.9ZM 151.70796875-29L 149.45796875-29Q 151.26796875-33.01  155.14796875-35.3Q 159.03796875-37.6  164.15796875-37.6L 164.15796875-37.6Q 166.25796875-37.6  168.23796875-37.26Q 170.21796875-36.91  171.89796875-36.21Q 173.58796875000002-35.5  174.85796875-34.47Q 176.12796875-33.45  176.85796875-32.13L 176.85796875-32.13Q 174.06796875-33.98  170.89796875-34.86Q 167.72796875-35.74  164.05796875-35.74L 164.05796875-35.74Q 159.81796875-35.74  156.58796875000002-33.98Q 153.36796875-32.23  151.70796875-29L 151.70796875-29ZM 139.93796875-2.15L 139.93796875-2.15Q 144.67796875 1.22  150.94796875 3.08Q 157.22796875 4.93  165.32796875 4.93L 165.32796875 4.93Q 173.23796875 4.93  180.14796875 3.13Q 187.05796875 1.32  192.62796874999998-2.39L 192.62796874999998-2.39L 193.94796875-0.98Q 187.64796875 3.27  180.68796875 5.03Q 173.72796875 6.79  166.11796875 6.79L 166.11796875 6.79Q 156.19796875 6.79  149.67796875 4.39Q 143.16796875 2  139.93796875-2.15Z"></path>
    <path id="_cl19Dt7WGLtI2ncX3kRZs" fill="#b1b1b1"
          transform="matrix(0.8924960494041443, 0, 0, 0.5626254677772522, 177.1292266845703, 273.5415344238281)"
          data-type="rect" data-x="0" data-y="84.525" data-width="176.742" data-height="7.219"
          d="M0 84.525H176.742 V91.744 H0 Z" data-uid="o_emd981hn6_6"></path>
    <g id="_IR3ClkiEhra_DimunpY7n"
       transform="matrix(1.5022045373916626, 0, 0, 1.5022045373916626, -131.0970458984375, -167.5449676513672)"
       data-uid="o_emd981hn6_7">
        <path id="_x0SH29ryD8E83shFUn_Vo"
              d="M33.872,32.804c-1.285-0.331-2.057-1.634-1.726-2.919l0,0c0.331-1.285,1.64-2.057,2.92-1.726l0,0l0,0l0,0  c1.285,0.331,2.057,1.639,1.726,2.92l0,0c-0.278,1.083-1.251,1.802-2.32,1.802l0,0C34.274,32.881,34.073,32.857,33.872,32.804z"
              fill="#083b66"
              transform="matrix(0.9048241972923279, 0, 0, 0.9048241972923279, 212.12123107910156, 122.5215072631836)"
              data-uid="o_emd981hn6_8"></path>
        <path id="_ETGT-CADVyqfG5xTI7hFa"
              d="M41.831,36.055c-0.633,0-1.251-0.259-1.698-0.705c-0.445-0.446-0.699-1.064-0.699-1.693c0-0.632,0.254-1.251,0.699-1.697   c0.446-0.445,1.064-0.699,1.698-0.699c0.633,0,1.251,0.254,1.692,0.699c0.446,0.446,0.705,1.065,0.705,1.697   c0,0.633-0.259,1.247-0.705,1.693C43.082,35.796,42.463,36.055,41.831,36.055z"
              fill="#083b66"
              transform="matrix(0.9048241972923279, 0, 0, 0.9048241972923279, 211.7913055419922, 122.3598861694336)"
              data-uid="o_emd981hn6_9"></path>
        <path id="_5jDNXRrQF6hVd54zFejEW"
              d="M18.726,34.152c-0.632,0-1.251-0.259-1.697-0.705c-0.446-0.446-0.7-1.064-0.7-1.692c0-0.633,0.254-1.251,0.7-1.697   c0.446-0.446,1.065-0.7,1.697-0.7c0.633,0,1.252,0.253,1.692,0.7c0.451,0.446,0.705,1.064,0.705,1.697   c0,0.633-0.254,1.246-0.705,1.692C19.973,33.893,19.359,34.152,18.726,34.152z"
              fill="#083b66"
              transform="matrix(0.9048241972923279, 0, 0, 0.9048241972923279, 211.8863067626953, 122.2721176147461)"
              data-uid="o_emd981hn6_10"></path>
        <path id="_YgS3A6_tuJW623pssiLqW"
              d="M91.654,54.776c-1.31-0.191-2.216-1.408-2.023-2.723l0,0c0.191-1.309,1.41-2.215,2.724-2.023l0,0   c1.309,0.192,2.214,1.409,2.022,2.718v0.004c-0.177,1.189-1.199,2.048-2.368,2.048l0,0C91.89,54.801,91.773,54.791,91.654,54.776z    M89.521,44.546c-0.273-1.295,0.562-2.565,1.855-2.839l0,0c1.295-0.273,2.565,0.557,2.838,1.856l0,0   c0.273,1.294-0.561,2.565-1.855,2.838l0,0c-0.162,0.033-0.33,0.048-0.494,0.048l0,0C90.758,46.449,89.761,45.677,89.521,44.546z    M86.414,38.169c-0.868-0.997-0.762-2.512,0.235-3.38l0,0c0.997-0.873,2.512-0.767,3.379,0.23l0,0   c0.873,1.002,0.768,2.512-0.229,3.385l0,0c-0.455,0.393-1.017,0.589-1.573,0.589l0,0C87.555,38.994,86.889,38.716,86.414,38.169z"
              fill="#083b66"
              transform="matrix(0.9048241972923279, 0, 0, 0.9048241972923279, 212.34117126464844, 122.4177017211914)"
              data-uid="o_emd981hn6_11"></path>
        <path id="_Itoa6guTh3LoO3DCCKOlF"
              d="M63.377,31.079c-0.326-1.281,0.445-2.589,1.726-2.92l0,0c1.279-0.326,2.589,0.445,2.92,1.726l0,0   c0.331,1.28-0.441,2.589-1.726,2.919l0,0c-0.202,0.053-0.403,0.077-0.6,0.077l0,0C64.629,32.881,63.654,32.162,63.377,31.079z    M73.492,32.152c-1.318-0.105-2.306-1.261-2.2-2.58l0,0c0.106-1.318,1.256-2.306,2.58-2.2l0,0c1.318,0.105,2.306,1.256,2.201,2.575   l0,0c-0.103,1.261-1.151,2.21-2.388,2.21l0,0C73.622,32.157,73.555,32.157,73.492,32.152z"
              fill="#083b66"
              transform="matrix(0.9048241972923279, 0, 0, 0.9048241972923279, 211.9104766845703, 122.71891021728516)"
              data-uid="o_emd981hn6_12"></path>
        <path id="_zwKTbiFBXCD1bNbWh5XeA"
              d="M58.338,36.055c-0.629,0-1.246-0.259-1.693-0.705c-0.445-0.446-0.704-1.064-0.704-1.693c0-0.632,0.259-1.251,0.704-1.697   c0.447-0.445,1.064-0.699,1.693-0.699c0.633,0,1.251,0.254,1.697,0.699c0.445,0.446,0.7,1.065,0.7,1.697   c0,0.628-0.255,1.247-0.7,1.693C59.589,35.796,58.971,36.055,58.338,36.055z"
              fill="#083b66"
              transform="matrix(0.9048241972923279, 0, 0, 0.9048241972923279, 212.2373809814453, 122.3598861694336)"
              data-uid="o_emd981hn6_13"></path>
        <path id="_sM5ePOBNRc-By-2VteGTA"
              d="M81.442,34.152c-0.629,0-1.246-0.259-1.693-0.705c-0.445-0.441-0.704-1.06-0.704-1.692c0-0.633,0.259-1.251,0.704-1.697   c0.447-0.446,1.061-0.7,1.693-0.7s1.251,0.253,1.697,0.7c0.445,0.446,0.7,1.064,0.7,1.697c0,0.628-0.255,1.246-0.7,1.692   C82.693,33.893,82.075,34.152,81.442,34.152z"
              fill="#083b66"
              transform="matrix(0.9048241972923279, 0, 0, 0.9048241972923279, 212.14328002929688, 122.2721176147461)"
              data-uid="o_emd981hn6_14"></path>
        <path id="_mjR7sRZG91MCsQrExEl6D"
              d="M89.731,62.86c-0.628,0-1.246-0.254-1.691-0.705c-0.447-0.445-0.706-1.064-0.706-1.691c0-0.634,0.259-1.252,0.706-1.697   c0.445-0.446,1.063-0.7,1.691-0.7c0.633,0,1.252,0.254,1.697,0.7c0.446,0.445,0.7,1.063,0.7,1.697c0,0.627-0.254,1.246-0.7,1.691   C90.983,62.606,90.364,62.86,89.731,62.86z"
              fill="#083b66"
              transform="matrix(0.9048241972923279, 0, 0, 0.9048241972923279, 211.8817901611328, 122.5354232788086)"
              data-uid="o_emd981hn6_15"></path>
        <path id="_jqZzWUBHKrRte76M_psXi"
              d="M58.344,13.448l-7.014,2.417l2.422-6.673h-7.542l2.412,6.679l-6.791-2.423v7.542l6.963-2.515  c-0.191,1.659-2.615,6.617-2.615,6.617h7.611c0,0-2.271-4.955-2.544-6.625l7.098,2.522V13.448z"
              fill="#083b66"
              transform="matrix(0.9048241972923279, 0, 0, 0.9048241972923279, 212.3369140625, 122.87472534179688)"
              data-uid="o_emd981hn6_16"></path>
        <path id="_ymhzQS8Y-ekiRhBb7UVFB"
              d="M50.084,35.997c2.639,0,4.778-2.139,4.778-4.777c0-2.637-2.139-4.776-4.778-4.776c-2.638,0-4.777,2.139-4.777,4.776  C45.307,33.858,47.446,35.997,50.084,35.997"
              fill="#083b66"
              transform="matrix(0.9048241972923279, 0, 0, 0.9048241972923279, 212.35862731933594, 122.64671325683594)"
              data-uid="o_emd981hn6_17"></path>
        <path id="_li-uygLVo4MVLr889h7-S"
              d="M91.164,64.562l-3.751-0.395l-0.497,4.73l-5.877-3.725l-1.632,7.365l6.408-0.804c-0.979,2.161-2.55,4.94-4.369,5.548  c-1.738,0.579-6.251-0.068-8.152-0.985c-1.252-0.722-1.845-3.151-2.123-5.038c0.003-0.021,0.012-0.043,0.015-0.066  c0.204-1.485,2.373-1.521,3.53-1.181c1.157,0.338,0,4.145,0,4.145s1.974,0,3.266-2.574c1.291-2.572-0.681-4.969-2.656-5.717  c-1.975-0.746-4.274,2.01-4.274,2.01s1.019-1.874,2.508-6.358c1.412-4.252-2.165-8.864-2.54-9.331l0.005-0.047  c0,0-0.017,0.017-0.024,0.022c-0.004-0.005-0.017-0.022-0.017-0.022l-0.004,0.041c-0.434,0.412-4.599,4.499-3.772,8.904  c0.87,4.644,1.628,6.637,1.628,6.637s-1.906-3.041-3.966-2.566c-2.06,0.474-4.336,2.583-3.402,5.307  c0.933,2.725,2.888,2.99,2.888,2.99s-0.633-3.927,0.559-4.107c1.193-0.18,3.269,0.05,3.271,1.55c0,0.035,0.009,0.069,0.01,0.103  c-0.475,1.911-1.301,4.456-2.437,5.037c-0.154,0.079-6.055,2.404-11.015,0.365c-2.146-1.052-3.282-5.104-3.52-6.837l7.122,2.529  v-7.542l-7.002,2.498l2.41-6.755h-7.542l2.416,6.742l-6.795-2.485v7.542l6.976-2.519c-0.17,1.768-0.297,5.618-2.662,6.894  C42,78.232,35.85,76.772,34.417,76.033c-1.136-0.581-1.961-3.126-2.436-5.037c0.001-0.033,0.01-0.067,0.01-0.103  c0.001-1.5,2.076-1.729,3.269-1.55c1.193,0.181,0.559,4.107,0.559,4.107s1.957-0.266,2.888-2.99  c0.933-2.724-1.343-4.833-3.401-5.307c-2.059-0.475-3.966,2.566-3.966,2.566s0.757-1.993,1.628-6.637  c0.825-4.405-3.339-8.492-3.774-8.904l-0.003-0.041c0,0-0.013,0.018-0.018,0.022c-0.007-0.006-0.023-0.022-0.023-0.022l0.003,0.047  c-0.375,0.467-3.951,5.079-2.539,9.331c1.489,4.484,2.507,6.358,2.507,6.358s-2.299-2.756-4.275-2.01  c-1.976,0.748-3.946,3.145-2.656,5.717c1.292,2.574,3.265,2.574,3.265,2.574s-1.157-3.807,0-4.145  c1.158-0.341,3.327-0.305,3.53,1.181c0.003,0.023,0.012,0.045,0.015,0.066c-0.278,1.887-0.428,4.281-1.679,5.004  c-2.141,1.597-6.83,1.732-8.97,0.78c-1.818-0.606-3.015-3.147-3.995-5.309l6.409,0.804l-1.632-7.365l-5.877,3.725l-0.498-4.73  l-3.75,0.395l1.703,3.514c0.932,2.214,2.165,5.434,3.122,9.002c1.863,6.951,1.903,12.028,1.903,12.028s18.415-0.087,34.35-0.087  c15.935,0,34.35,0.086,34.35,0.086s0.039-5.076,1.902-12.027c0.957-3.568,2.19-6.788,3.122-9.001L91.164,64.562z"
              fill="#083b66"
              transform="matrix(0.9048241972923279, 0, 0, 0.9048241972923279, 212.1767578125, 122.47208404541016)"
              data-uid="o_emd981hn6_18"></path>
        <path id="_JMIvzinVdHRlW0gmrbqKH"
              d="M47.689,48.587c0-1.323,1.074-2.397,2.397-2.397l0,0c1.324,0,2.398,1.074,2.398,2.397l0,0c0,1.323-1.074,2.397-2.398,2.397   l0,0C48.763,50.984,47.689,49.91,47.689,48.587z"
              fill="#083b66"
              transform="matrix(0.9048241972923279, 0, 0, 0.9048241972923279, 212.46539306640625, 122.42412567138672)"
              data-uid="o_emd981hn6_19"></path>
        <path id="_FNH0z-XEEGPYJsLEi7XkG"
              d="M50.086,58.732c-0.633,0-1.251-0.259-1.692-0.705c-0.451-0.445-0.705-1.064-0.705-1.692c0-0.633,0.254-1.251,0.705-1.697   c0.441-0.445,1.06-0.7,1.692-0.7c0.633,0,1.25,0.255,1.698,0.7c0.445,0.446,0.7,1.064,0.7,1.697c0,0.628-0.255,1.247-0.7,1.692   C51.333,58.474,50.72,58.732,50.086,58.732z"
              fill="#083b66"
              transform="matrix(0.9048241972923279, 0, 0, 0.9048241972923279, 212.46539306640625, 122.65214538574219)"
              data-uid="o_emd981hn6_20"></path>
        <path id="_93Modz3cEEdZ6OpAA84Dy"
              d="M24.096,29.947c-0.101-1.318,0.882-2.474,2.206-2.575l0,0c1.318-0.105,2.469,0.882,2.574,2.2l0,0  c0.106,1.319-0.882,2.475-2.2,2.58l0,0c-0.062,0.005-0.129,0.005-0.192,0.005l0,0C25.247,32.157,24.197,31.203,24.096,29.947z"
              fill="#083b66"
              transform="matrix(0.9048241972923279, 0, 0, 0.9048241972923279, 212.1035919189453, 122.2663803100586)"
              data-uid="o_emd981hn6_21"></path>
        <path id="_xxKsQ0xEYdURM843ktU7U"
              d="M10.37,38.404c-0.997-0.873-1.103-2.383-0.23-3.385l0,0c0,0,0,0,0,0.005l0,0c0.868-1.002,2.383-1.103,3.38-0.235l0,0  c0.998,0.868,1.103,2.383,0.235,3.38l0,0c-0.475,0.547-1.141,0.825-1.807,0.825l0,0C11.386,38.994,10.825,38.797,10.37,38.404z"
              fill="#083b66"
              transform="matrix(0.9048241972923279, 0, 0, 0.9048241972923279, 211.6880645751953, 122.41544342041016)"
              data-uid="o_emd981hn6_22"></path>
        <path id="_wxeRAYmYwcME2lOYG7Uki"
              d="M7.81,46.401c-1.3-0.273-2.129-1.544-1.855-2.838l0,0l0,0l0,0c0.273-1.299,1.544-2.129,2.838-1.856l0,0  c1.294,0.274,2.124,1.544,1.855,2.839l0,0c-0.24,1.131-1.237,1.903-2.344,1.903l0,0C8.14,46.449,7.972,46.435,7.81,46.401z"
              fill="#083b66"
              transform="matrix(0.9048241972923279, 0, 0, 0.9048241972923279, 212.27206420898438, 122.90815734863281)"
              data-uid="o_emd981hn6_23"></path>
        <path id="_exN4mWPVThGZmYRlAXFiw"
              d="M5.791,52.753c0,0,0,0,0.005,0l0,0c-0.197-1.313,0.709-2.525,2.019-2.722l0,0c1.313-0.192,2.531,0.714,2.723,2.023l0,0  c0.192,1.309-0.714,2.531-2.023,2.723l0,0c-0.12,0.015-0.235,0.024-0.35,0.024l0,0C6.995,54.801,5.968,53.942,5.791,52.753z"
              fill="#083b66"
              transform="matrix(0.9048241972923279, 0, 0, 0.9048241972923279, 212.39292907714844, 122.59121704101562)"
              data-uid="o_emd981hn6_24"></path>
        <path id="_uCEdc2M7GDdrmigAEs2at"
              d="M10.437,62.86c-0.633,0-1.251-0.26-1.697-0.705c-0.446-0.445-0.7-1.06-0.7-1.691c0-0.634,0.254-1.252,0.7-1.697   c0.446-0.446,1.064-0.7,1.697-0.7c0.633,0,1.247,0.254,1.697,0.7c0.446,0.445,0.7,1.063,0.7,1.697c0,0.632-0.254,1.246-0.7,1.691   S11.07,62.86,10.437,62.86z"
              fill="#083b66"
              transform="matrix(0.9048241972923279, 0, 0, 0.9048241972923279, 212.14781188964844, 122.5354232788086)"
              data-uid="o_emd981hn6_25"></path>
        <path id="_js0qDTmwJ7AcykPjzeDc4"
              d="M50.086,43.237c-0.633,0-1.246-0.254-1.692-0.7c-0.451-0.446-0.705-1.064-0.705-1.693c0-0.633,0.254-1.251,0.705-1.697   c0.441-0.446,1.06-0.7,1.692-0.7c0.633,0,1.247,0.254,1.698,0.7c0.445,0.446,0.7,1.064,0.7,1.697c0,0.628-0.255,1.247-0.7,1.693   C51.333,42.983,50.715,43.237,50.086,43.237z"
              fill="#083b66"
              transform="matrix(0.9048241972923279, 0, 0, 0.9048241972923279, 212.46539306640625, 122.19158935546875)"
              data-uid="o_emd981hn6_26"></path>
    </g>
    <path id="_PuYzttsGHhyLiLCBudotV" fill="#083b66"
          transform="matrix(0.3623824417591095, 0, 0, 0.3150441348552704, 254.73165893554688, 355.58184814453125)"
          text="H O T E L &amp; S P A" text-anchor="middle" font-size="100" letter-spacing="0" side="left" offset="0.5"
          dx="0" dy="0" space="preserve" href="" font-family="Raleway" font-scale="contain" x="0" y="0"
          font-weight="700" data-fl-textpath="" data-uid="o_emd981hn6_27"
          d="M-331.8-71L-318.1-71L-318.1 0L-331.8 0L-331.8-30.3L-364-30.3L-364 0L-377.8 0L-377.8-71L-364-71L-364-42.3L-331.8-42.3L-331.8-71ZM-249 0.5L-249 0.5Q-256.8 0.5 -263.15-2.55Q-269.5-5.6 -274.05-10.65Q-278.59999999999997-15.7 -281.09999999999997-22.2Q-283.59999999999997-28.7 -283.59999999999997-35.5L-283.59999999999997-35.5Q-283.59999999999997-42.6 -280.95-49.1Q-278.3-55.6 -273.65-60.6Q-269-65.6 -262.59999999999997-68.55Q-256.2-71.5 -248.7-71.5L-248.7-71.5Q-241-71.5 -234.64999999999998-68.35Q-228.29999999999998-65.2 -223.79999999999998-60.1Q-219.29999999999998-55 -216.79999999999998-48.5Q-214.29999999999998-42 -214.29999999999998-35.3L-214.29999999999998-35.3Q-214.29999999999998-28.2 -216.89999999999998-21.75Q-219.5-15.3 -224.1-10.35Q-228.7-5.4 -235.1-2.45Q-241.5 0.5 -249 0.5ZM-269.59999999999997-35.5L-269.59999999999997-35.5Q-269.59999999999997-30.9 -268.2-26.6Q-266.8-22.3 -264.15-19Q-261.5-15.7 -257.65-13.7Q-253.79999999999998-11.7 -248.89999999999998-11.7L-248.89999999999998-11.7Q-243.89999999999998-11.7 -240.04999999999998-13.75Q-236.2-15.8 -233.54999999999998-19.2Q-230.89999999999998-22.6 -229.54999999999998-26.85Q-228.2-31.1 -228.2-35.5L-228.2-35.5Q-228.2-40.1 -229.64999999999998-44.4Q-231.1-48.7 -233.75-52Q-236.39999999999998-55.3 -240.25-57.25Q-244.1-59.2 -248.89999999999998-59.2L-248.89999999999998-59.2Q-253.89999999999998-59.2 -257.8-57.15Q-261.7-55.1 -264.3-51.75Q-266.9-48.4 -268.25-44.15Q-269.59999999999997-39.9 -269.59999999999997-35.5ZM-129.39999999999998-71L-129.39999999999998-58.9L-152.09999999999997-58.9L-152.09999999999997 0L-165.79999999999998 0L-165.79999999999998-58.9L-188.49999999999997-58.9L-188.49999999999997-71L-129.39999999999998-71ZM-85.59999999999995-12.1L-50.09999999999995-12.1L-50.09999999999995 0L-99.39999999999995 0L-99.39999999999995-71L-50.99999999999996-71L-50.99999999999996-58.9L-85.59999999999995-58.9L-85.59999999999995-41.8L-55.69999999999995-41.8L-55.69999999999995-30.6L-85.59999999999995-30.6L-85.59999999999995-12.1ZM 34.700000000000045 0L-15.299999999999953 0L-15.299999999999953-71L-1.4999999999999538-71L-1.4999999999999538-12.1L 34.700000000000045-12.1L 34.700000000000045 0ZM 128.20000000000005 0L 110.60000000000005 0L 105.00000000000006-5.9Q 100.60000000000005-2.5  95.50000000000006-0.75Q 90.40000000000005 1  85.00000000000006 1L 85.00000000000006 1Q 79.50000000000006 1  75.05000000000005-0.7Q 70.60000000000005-2.4  67.50000000000006-5.3Q 64.40000000000005-8.2  62.70000000000005-12.05Q 61.00000000000005-15.9  61.00000000000005-20.1L 61.00000000000005-20.1Q 61.00000000000005-23.4  62.00000000000005-26.2Q 63.00000000000005-29  64.75000000000006-31.35Q 66.50000000000006-33.7  68.75000000000006-35.7Q 71.00000000000006-37.7  73.50000000000006-39.4L 73.50000000000006-39.4Q 69.20000000000005-44.2  67.45000000000005-47.65Q 65.70000000000005-51.1  65.70000000000005-54.9L 65.70000000000005-54.9Q 65.70000000000005-58.7  67.20000000000005-61.85Q 68.70000000000005-65  71.30000000000005-67.25Q 73.90000000000005-69.5  77.45000000000005-70.7Q 81.00000000000006-71.9  85.20000000000005-71.9L 85.20000000000005-71.9Q 88.90000000000005-71.9  92.30000000000004-70.9Q 95.70000000000005-69.9  98.30000000000004-67.95Q 100.90000000000005-66  102.50000000000006-63.05Q 104.10000000000005-60.1  104.10000000000005-56.2L 104.10000000000005-56.2Q 104.10000000000005-50.4  100.70000000000005-46.05Q 97.30000000000004-41.7  92.00000000000006-37.9L 92.00000000000006-37.9L 105.60000000000005-23.7Q 107.10000000000005-26.9  107.95000000000005-30.7Q 108.80000000000004-34.5  108.80000000000004-38.9L 108.80000000000004-38.9L 119.70000000000005-38.9Q 119.60000000000005-31.8  118.00000000000006-26Q 116.40000000000005-20.2  113.50000000000006-15.4L 113.50000000000006-15.4L 128.20000000000005 0ZM 86.30000000000005-9.5L 86.30000000000005-9.5Q 92.50000000000006-9.5  97.80000000000004-13.6L 97.80000000000004-13.6L 81.40000000000005-30.9Q 77.90000000000005-28.4  75.90000000000005-25.8Q 73.90000000000005-23.2  73.90000000000005-20L 73.90000000000005-20Q 73.90000000000005-17.9  74.80000000000005-15.95Q 75.70000000000005-14  77.35000000000005-12.6Q 79.00000000000006-11.2  81.30000000000005-10.35Q 83.60000000000005-9.5  86.30000000000005-9.5ZM 77.90000000000005-55.3L 77.90000000000005-55.3Q 77.90000000000005-54.4  78.20000000000005-53.55Q 78.50000000000006-52.7  79.20000000000005-51.7Q 79.90000000000005-50.7  81.05000000000005-49.4Q 82.20000000000005-48.1  84.00000000000006-46.2L 84.00000000000006-46.2Q 87.80000000000005-48.8  89.80000000000004-51.05Q 91.80000000000004-53.3  91.80000000000004-56L 91.80000000000004-56Q 91.80000000000004-58.7  89.95000000000005-60.35Q 88.10000000000005-62  85.20000000000005-62L 85.20000000000005-62Q 82.00000000000006-62  79.95000000000005-60.05Q 77.90000000000005-58.1  77.90000000000005-55.3ZM 208.00000000000006-63.6L 201.90000000000003-52.4Q 201.20000000000005-53.1  199.35000000000005-54.3Q 197.50000000000006-55.5  194.85000000000005-56.65Q 192.20000000000005-57.8  189.10000000000005-58.6Q 186.00000000000006-59.4  182.80000000000004-59.4L 182.80000000000004-59.4Q 177.10000000000005-59.4  174.30000000000004-57.3Q 171.50000000000006-55.2  171.50000000000006-51.4L 171.50000000000006-51.4Q 171.50000000000006-49.2  172.55000000000004-47.75Q 173.60000000000005-46.3  175.60000000000005-45.2Q 177.60000000000005-44.1  180.65000000000003-43.2Q 183.70000000000005-42.3  187.70000000000005-41.3L 187.70000000000005-41.3Q 192.90000000000003-39.9  197.15000000000003-38.3Q 201.40000000000003-36.7  204.35000000000005-34.3Q 207.30000000000004-31.9  208.90000000000003-28.55Q 210.50000000000006-25.2  210.50000000000006-20.3L 210.50000000000006-20.3Q 210.50000000000006-14.6  208.35000000000005-10.55Q 206.20000000000005-6.5  202.55000000000004-4Q 198.90000000000003-1.5  194.15000000000003-0.35Q 189.40000000000003 0.8  184.20000000000005 0.8L 184.20000000000005 0.8Q 176.20000000000005 0.8  168.40000000000003-1.6Q 160.60000000000005-4  154.40000000000003-8.4L 154.40000000000003-8.4L 160.50000000000006-20.3Q 161.40000000000003-19.4  163.75000000000006-17.95Q 166.10000000000005-16.5  169.30000000000004-15.05Q 172.50000000000006-13.6  176.40000000000003-12.6Q 180.30000000000004-11.6  184.40000000000003-11.6L 184.40000000000003-11.6Q 195.80000000000004-11.6  195.80000000000004-18.9L 195.80000000000004-18.9Q 195.80000000000004-21.2  194.50000000000006-22.8Q 193.20000000000005-24.4  190.80000000000004-25.6Q 188.40000000000003-26.8  185.00000000000006-27.8Q 181.60000000000005-28.8  177.40000000000003-30L 177.40000000000003-30Q 172.30000000000004-31.4  168.55000000000004-33.05Q 164.80000000000004-34.7  162.30000000000004-36.95Q 159.80000000000004-39.2  158.55000000000004-42.15Q 157.30000000000004-45.1  157.30000000000004-49.2L 157.30000000000004-49.2Q 157.30000000000004-54.6  159.30000000000004-58.8Q 161.30000000000004-63  164.85000000000005-65.8Q 168.40000000000003-68.6  173.10000000000005-70.05Q 177.80000000000004-71.5  183.20000000000005-71.5L 183.20000000000005-71.5Q 190.70000000000005-71.5  197.00000000000006-69.15Q 203.30000000000004-66.8  208.00000000000006-63.6L 208.00000000000006-63.6ZM 258.70000000000005 0L 244.90000000000006 0L 244.90000000000006-71L 275.00000000000006-71Q 279.90000000000003-71  284.05000000000007-68.95Q 288.20000000000005-66.9  291.20000000000005-63.55Q 294.20000000000005-60.2  295.90000000000003-55.95Q 297.6000000000001-51.7  297.6000000000001-47.4L 297.6000000000001-47.4Q 297.6000000000001-42.9  296.00000000000006-38.65Q 294.40000000000003-34.4  291.50000000000006-31.1Q 288.6000000000001-27.8  284.50000000000006-25.8Q 280.40000000000003-23.8  275.50000000000006-23.8L 275.50000000000006-23.8L 258.70000000000005-23.8L 258.70000000000005 0ZM 258.70000000000005-58.9L 258.70000000000005-35.9L 274.70000000000005-35.9Q 278.50000000000006-35.9  281.05000000000007-39Q 283.6000000000001-42.1  283.6000000000001-47.4L 283.6000000000001-47.4Q 283.6000000000001-50.1  282.80000000000007-52.25Q 282.00000000000006-54.4  280.70000000000005-55.9Q 279.40000000000003-57.4  277.65000000000003-58.15Q 275.90000000000003-58.9  274.1000000000001-58.9L 274.1000000000001-58.9L 258.70000000000005-58.9ZM 318.50000000000006 0L 345.6000000000001-71L 357.80000000000007-71L 384.80000000000007 0L 370.6000000000001 0L 364.00000000000006-17.7L 339.20000000000005-17.7L 332.70000000000005 0L 318.50000000000006 0ZM 341.50000000000006-27.4L 361.50000000000006-27.4L 351.70000000000005-55.3L 341.50000000000006-27.4Z"></path>
    <g transform="matrix(0.4172542989253998, 0, 0, 0.4172542989253998, 235.1372833251953, 360.76019287109375)"
       data-uid="o_emd981hn6_28">
        <path transform="matrix(1, 0, 0, 1, 0, 0)" data-type="polygon"
              d="M95 38.25L60.765 38.274L50.444 7.309L40.117 38.289L5 38.314L33.267 58.841L21.983 92.691L23.182 91.835L23.038 92.301L32.925 84.875L50.444 72.362L78.904 92.691L67.614 58.82Z"
              data-uid="o_emd981hn6_29"></path>
    </g>
    <g transform="matrix(0.4172542989253998, 0, 0, 0.4172542989253998, 272.6901550292969, 360.76019287109375)"
       data-uid="o_emd981hn6_30">
        <path transform="matrix(1, 0, 0, 1, 0, 0)" data-type="polygon"
              d="M95 38.25L60.765 38.274L50.444 7.309L40.117 38.289L5 38.314L33.267 58.841L21.983 92.691L23.182 91.835L23.038 92.301L32.925 84.875L50.444 72.362L78.904 92.691L67.614 58.82Z"
              data-uid="o_emd981hn6_31"></path>
    </g>
    <g transform="matrix(0.4172542989253998, 0, 0, 0.4172542989253998, 197.5843963623047, 360.76019287109375)"
       data-uid="o_emd981hn6_32">
        <path transform="matrix(1, 0, 0, 1, 0, 0)" data-type="polygon"
              d="M95 38.25L60.765 38.274L50.444 7.309L40.117 38.289L5 38.314L33.267 58.841L21.983 92.691L23.182 91.835L23.038 92.301L32.925 84.875L50.444 72.362L78.904 92.691L67.614 58.82Z"
              data-uid="o_emd981hn6_33"></path>
    </g>
    <g transform="matrix(0.4172542989253998, 0, 0, 0.4172542989253998, 310.2430419921875, 360.76019287109375)"
       data-uid="o_emd981hn6_34">
        <path transform="matrix(1, 0, 0, 1, 0, 0)" data-type="polygon"
              d="M95 38.25L60.765 38.274L50.444 7.309L40.117 38.289L5 38.314L33.267 58.841L21.983 92.691L23.182 91.835L23.038 92.301L32.925 84.875L50.444 72.362L78.904 92.691L67.614 58.82Z"
              data-uid="o_emd981hn6_35"></path>
    </g>
    <g transform="matrix(0.4172542989253998, 0, 0, 0.4172542989253998, 160.03150939941406, 360.76019287109375)"
       data-uid="o_emd981hn6_36">
        <path transform="matrix(1, 0, 0, 1, 0, 0)" data-type="polygon"
              d="M95 38.25L60.765 38.274L50.444 7.309L40.117 38.289L5 38.314L33.267 58.841L21.983 92.691L23.182 91.835L23.038 92.301L32.925 84.875L50.444 72.362L78.904 92.691L67.614 58.82Z"
              data-uid="o_emd981hn6_37"></path>
    </g>
    <path text="Loyalty" text-anchor="middle" font-size="100" letter-spacing="0" side="left" offset="0.5" dx="0" dy="0"
          space="preserve" href="" font-family="Vast Shadow" font-scale="contain"
          transform="matrix(0.6956377029418945, 0, 0, 0.8679413199424744, 253.9135284423828, 209.34385681152344)" x="0"
          y="0" fill="#000000" data-fl-textpath="" id="_6PzW6Hs1ukS2GtWBNacd3" data-uid="o_emd981hn6_38"
          d="M-261.23296875 0L-261.23296875-7.81L-248.53296875-7.81L-248.53296875-52.98L-262.06296875-52.98L-262.06296875-60.79L-223.78296875-60.79L-223.78296875-52.98L-237.45296875-52.98L-237.45296875-7.81L-203.51296875-7.81L-203.51296875-21.97L-192.53296875-21.97L-192.53296875 0L-261.23296875 0ZM-233.93296875-10.74L-233.93296875-49.07L-220.31296875-49.07L-220.31296875-58.35L-218.36296875-58.35L-218.36296875-47.22L-231.98296875-47.22L-231.98296875-10.74L-233.93296875-10.74ZM-259.13296875-47.22L-259.13296875-49.07L-250.58296875-49.07L-250.58296875-47.22L-259.13296875-47.22ZM-258.30296875 3.42L-189.01296875 3.42L-189.01296875-19.24L-187.06296874999998-19.24L-187.06296874999998 5.27L-258.30296875 5.27L-258.30296875 3.42ZM-175.971796875-22.8L-175.971796875-22.8Q-175.971796875-28.13 -173.681796875-32.84Q-171.381796875-37.55 -167.261796875-41.04Q-163.131796875-44.53 -157.371796875-46.56Q-151.611796875-48.58 -144.721796875-48.58L-144.721796875-48.58Q-137.501796875-48.58 -131.811796875-46.66Q-126.121796875-44.73 -122.191796875-41.31Q-118.261796875-37.89 -116.181796875-33.2Q-114.111796875-28.52 -114.111796875-23L-114.111796875-23Q-114.111796875-17.68 -116.381796875-13.18Q-118.651796875-8.69 -122.83179687500001-5.44Q-127.001796875-2.2 -132.841796875-0.37Q-138.67179687499998 1.46 -145.851796875 1.46L-145.851796875 1.46Q-152.631796875 1.46 -158.181796875-0.56Q-163.721796875-2.59 -167.671796875-5.96Q-171.631796875-9.33 -173.801796875-13.7Q-175.971796875-18.07 -175.971796875-22.8ZM-168.311796875-2.25L-168.311796875-2.25Q-163.571796875 1.17 -157.841796875 3.03Q-152.101796875 4.88 -144.871796875 4.88L-144.871796875 4.88Q-138.131796875 4.88 -131.931796875 3.05Q-125.731796875 1.22 -120.991796875-2.34Q-116.261796875-5.91 -113.431796875-11.11Q-110.591796875-16.31 -110.591796875-23L-110.591796875-23Q-110.591796875-26.27 -111.501796875-29.61Q-112.401796875-32.96 -114.041796875-36.04Q-115.671796875-39.11 -118.021796875-41.77Q-120.36179687500001-44.43 -123.241796875-46.29L-123.241796875-46.29Q-119.971796875-44.82 -117.261796875-42.43Q-114.551796875-40.04 -112.641796875-36.99Q-110.741796875-33.94 -109.691796875-30.37Q-108.641796875-26.81 -108.641796875-23L-108.641796875-23Q-108.641796875-18.21 -110.011796875-14.14Q-111.381796875-10.06 -113.791796875-6.76Q-116.211796875-3.47 -119.55179687500001-0.93Q-122.901796875 1.61 -126.901796875 3.3Q-130.911796875 4.98 -135.42179687499998 5.86Q-139.941796875 6.74 -144.631796875 6.74L-144.631796875 6.74Q-148.531796875 6.74 -152.101796875 6.13Q-155.661796875 5.52 -158.711796875 4.37Q-161.771796875 3.22 -164.211796875 1.56Q-166.651796875-0.1 -168.311796875-2.25ZM-165.131796875-23L-165.131796875-23Q-165.131796875-19.24 -163.691796875-16.14Q-162.251796875-13.04 -159.621796875-10.82Q-156.981796875-8.59 -153.291796875-7.37Q-149.611796875-6.15 -145.121796875-6.15L-145.121796875-6.15Q-140.571796875-6.15 -136.861796875-7.4Q-133.151796875-8.64 -130.471796875-10.86Q-127.781796875-13.09 -126.32179687499999-16.19Q-124.85179687499999-19.29 -124.85179687499999-23L-124.85179687499999-23Q-124.85179687499999-26.66 -126.32179687499999-29.91Q-127.781796875-33.15 -130.42179687499998-35.62Q-133.051796875-38.09 -136.741796875-39.53Q-140.431796875-40.97 -144.871796875-40.97L-144.871796875-40.97Q-149.51179687500002-40.97 -153.251796875-39.58Q-156.981796875-38.18 -159.621796875-35.77Q-162.251796875-33.35 -163.691796875-30.08Q-165.131796875-26.81 -165.131796875-23ZM-161.721796875-22.8L-161.721796875-22.8Q-161.721796875-25.88 -160.501796875-28.59Q-159.281796875-31.3 -157.051796875-33.28Q-154.831796875-35.25 -151.731796875-36.4Q-148.631796875-37.55 -144.871796875-37.55L-144.871796875-37.55Q-142.481796875-37.55 -140.231796875-37.04Q-137.991796875-36.52 -136.081796875-35.55Q-134.181796875-34.57 -132.711796875-33.18Q-131.251796875-31.79 -130.371796875-30.03L-130.371796875-30.03Q-133.591796875-32.96 -137.081796875-34.33Q-140.571796875-35.69 -144.971796875-35.69L-144.971796875-35.69Q-148.141796875-35.69 -150.831796875-34.67Q-153.51179687500002-33.64 -155.521796875-31.88Q-157.521796875-30.13 -158.641796875-27.78Q-159.76179687500002-25.44 -159.76179687500002-22.8L-159.76179687500002-22.8Q-159.76179687500002-20.61 -159.231796875-18.7Q-158.691796875-16.8 -157.401796875-15.16Q-156.101796875-13.53 -153.951796875-12.21Q-151.801796875-10.89 -148.581796875-9.86L-148.581796875-9.86Q-151.51179687500002-10.06 -153.931796875-11.11Q-156.351796875-12.16 -158.081796875-13.87Q-159.811796875-15.58 -160.76179687500002-17.87Q-161.721796875-20.17 -161.721796875-22.8ZM-83.24734375 15.72L-70.84734375 15.72L-63.37734375 1.81L-90.62734375-39.79L-101.07734375-39.79L-101.07734375-47.12L-67.72734375-47.12L-67.72734375-39.79L-78.07734375-39.79L-57.90734375-8.35L-41.01734375-39.79L-52.87734375-39.79L-52.87734375-47.12L-20.35734375-47.12L-20.35734375-39.79L-30.27734375-39.79L-64.54734375000001 23.05L-83.24734375 23.05L-83.24734375 15.72ZM-80.31734374999999 26.46L-62.00734375 26.46L-27.687343749999997-36.38L-16.847343749999993-36.38L-16.847343749999993-44.38L-14.897343750000005-44.38L-14.897343750000005-34.52L-26.567343750000006-34.52L-60.78734375 28.32L-80.31734374999999 28.32L-80.31734374999999 26.46ZM-57.51734375-14.99L-71.18734375-36.38L-64.20734375-36.38L-64.20734375-44.38L-62.25734375-44.38L-62.25734375-34.52L-67.72734375-34.52L-56.44734375-16.94L-57.51734375-14.99ZM-50.48734375-34.52L-50.48734375-36.38L-45.40734375-36.38L-46.38734375-34.52L-50.48734375-34.52ZM-98.14734375-34.52L-98.14734375-36.38L-91.06734374999999-36.38L-89.84734375-34.52L-98.14734375-34.52ZM-8.296015624999999-23.39L-8.296015624999999-23.39Q-8.296015624999999-27.93 -6.396015625-32.42Q-4.496015625-36.91 -0.7560156249999999-40.5Q 2.9739843750000006-44.09  8.493984375-46.34Q 14.013984375-48.58  21.193984375-48.58L 21.193984375-48.58Q 23.483984375-48.58  26.093984374999998-48.24Q 28.713984375000003-47.9  31.323984375000002-47.12Q 33.933984375-46.34  36.423984375-45.04Q 38.913984375-43.75  40.963984375-41.89L 40.963984375-41.89L 40.963984375-47.12L 61.963984374999995-47.12L 61.963984374999995-38.82L 51.223984375-38.82L 51.223984375-7.32L 61.963984374999995-7.32L 61.963984374999995 0L 40.963984375 0L 40.963984375-6.35Q 39.063984375-4.44  36.643984375-2.98Q 34.223984375-1.51  31.513984375-0.54Q 28.803984375 0.44  25.903984375 0.95Q 22.993984374999997 1.46  20.113984375 1.46L 20.113984375 1.46Q 13.083984375 1.46  7.763984375-0.54Q 2.4439843749999994-2.54 -1.1260156250000009-5.93Q-4.686015625-9.33 -6.496015625-13.84Q-8.296015624999999-18.36 -8.296015624999999-23.39ZM 54.733984375000006-10.25L 54.733984375000006-35.4L 65.473984375-35.4L 65.473984375-43.41L 67.433984375-43.41L 67.433984375-33.54L 56.693984375-33.54L 56.693984375-10.25L 54.733984375000006-10.25ZM 2.293984375000001-23.78L 2.293984375000001-23.78Q 2.293984375000001-19.73  3.7339843749999986-16.46Q 5.173984375-13.18  7.663984374999998-10.89Q 10.153984375-8.59  13.573984374999998-7.32Q 16.993984375-6.05  20.943984375-6.05L 20.943984375-6.05Q 23.243984374999997-6.05  25.613984375-6.52Q 27.973984375-6.98  30.203984374999997-7.93Q 32.423984375-8.89  34.403984375-10.33Q 36.373984375-11.77  37.813984375-13.75Q 39.253984375-15.72  40.113984375-18.26Q 40.963984375-20.8  40.963984375-23.93L 40.963984375-23.93Q 40.963984375-27.39  39.353984375-30.49Q 37.743984375-33.59  35.033984375-35.94Q 32.323984375-38.28  28.713984375000003-39.65Q 25.093984374999998-41.02  21.093984374999998-41.02L 21.093984374999998-41.02Q 17.093984375-41.02  13.643984374999999-39.79Q 10.203984375000001-38.57  7.693984374999999-36.33Q 5.173984375-34.08  3.7339843749999986-30.88Q 2.293984375000001-27.69  2.293984375000001-23.78ZM 5.663984374999998-23.54L 5.663984374999998-23.54Q 5.663984374999998-26.61  6.813984375-29.17Q 7.963984374999999-31.74  10.013984375-33.62Q 12.063984375-35.5  14.893984374999999-36.55Q 17.723984375-37.6  21.093984374999998-37.6L 21.093984374999998-37.6Q 23.633984374999997-37.6  25.683984375-37.04Q 27.733984375-36.47  29.243984374999997-35.67Q 30.763984375-34.86  31.733984375-34.01Q 32.713984375-33.15  33.103984375-32.52L 33.103984375-32.52Q 30.463984375000003-33.98  27.683984375-34.86Q 24.903984375-35.74  21.093984374999998-35.74L 21.093984374999998-35.74Q 18.013984375-35.74  15.553984374999999-34.74Q 13.083984375-33.74  11.323984374999998-32.03Q 9.573984374999998-30.32  8.613984375000001-28.08Q 7.663984374999998-25.83  7.663984374999998-23.34L 7.663984374999998-23.34Q 7.663984374999998-21  8.203984375000001-18.95Q 8.743984375-16.89  9.933984375000001-15.16Q 11.133984375-13.43  13.063984375-11.99Q 14.993984375-10.55  17.723984375-9.47L 17.723984375-9.47Q 14.643984374999999-10.01  12.373984375-11.3Q 10.103984375-12.6  8.613984375000001-14.45Q 7.123984374999999-16.31  6.393984374999999-18.63Q 5.663984374999998-20.95  5.663984374999998-23.54ZM 43.893984375 3.42L 65.473984375 3.42L 65.473984375-4.59L 67.433984375-4.59L 67.433984375 5.27L 43.893984375 5.27L 43.893984375 3.42ZM-2.006015625-2.1L-2.006015625-2.1Q 0.003984374999999929-0.49  2.543984375000001 0.81Q 5.073984374999998 2.1  7.963984374999999 3Q 10.843984375000002 3.91  13.943984375 4.39Q 17.043984375 4.88  20.163984375 4.88L 20.163984375 4.88Q 25.583984375 4.88  30.293984375 3.54Q 35.013984375 2.2  38.673984375-0.2L 38.673984375-0.2L 38.673984375 2.05Q 35.013984375 4.25  30.203984374999997 5.49Q 25.393984375000002 6.74  20.213984375000003 6.74L 20.213984375000003 6.74Q 16.653984375 6.74  13.233984374999999 6.18Q 9.813984375 5.62  6.883984375000001 4.49Q 3.953984375000001 3.37  1.663984375 1.71Q-0.6360156250000006 0.05 -2.006015625-2.1ZM 79.39515625 0L 79.39515625-7.32L 90.13515625-7.32L 90.13515625-60.79L 79.39515625-60.79L 79.39515625-68.12L 100.63515625-68.12L 100.63515625-7.32L 111.37515625-7.32L 111.37515625 0L 79.39515625 0ZM 104.05515625-10.25L 104.05515625-65.63L 106.00515625-65.63L 106.00515625-10.25L 104.05515625-10.25ZM 82.32515624999999-55.52L 82.32515624999999-57.37L 88.08515625-57.37L 88.08515625-55.52L 82.32515624999999-55.52ZM 82.32515624999999 3.42L 114.89515625 3.42L 114.89515625-4.59L 116.84515625-4.59L 116.84515625 5.27L 82.32515624999999 5.27L 82.32515624999999 3.42ZM 134.863671875-17.48L 134.863671875-38.82L 124.123671875-38.82L 124.123671875-47.12L 134.863671875-47.12L 134.863671875-56.98L 145.363671875-61.38L 145.363671875-47.12L 169.633671875-47.12L 169.633671875-38.82L 145.363671875-38.82L 145.363671875-15.53Q 145.363671875-11.87  147.653671875-10.08Q 149.953671875-8.3  153.903671875-8.3L 153.903671875-8.3L 167.673671875-8.3L 167.673671875 0L 153.903671875 0Q 149.953671875 0  146.483671875-0.85Q 143.013671875-1.71  140.43367187500002-3.74Q 137.84367187499998-5.76  136.353671875-9.11Q 134.863671875-12.45  134.863671875-17.48L 134.863671875-17.48ZM 148.873671875-50.05L 148.873671875-58.69L 150.833671875-59.57L 150.833671875-50.05L 148.873671875-50.05ZM 148.783671875-13.53L 148.783671875-35.94L 173.143671875-35.94L 173.143671875-44.92L 175.09367187499998-44.92L 175.09367187499998-34.08L 150.733671875-34.08L 150.733671875-11.57Q 149.073671875-12.01  148.783671875-13.53L 148.783671875-13.53ZM 127.053671875-33.54L 127.053671875-35.4L 132.913671875-35.4L 132.913671875-33.54L 127.053671875-33.54ZM 134.573671875-4.2L 134.573671875-4.2Q 136.133671875-2  138.063671875-0.54Q 139.993671875 0.93  142.383671875 1.81Q 144.773671875 2.69  147.603671875 3.05Q 150.443671875 3.42  153.803671875 3.42L 153.803671875 3.42L 171.193671875 3.42L 171.193671875-6.1L 173.143671875-6.1L 173.143671875 5.27L 153.563671875 5.27Q 149.803671875 5.27  146.723671875 4.79Q 143.653671875 4.3  141.283671875 3.2Q 138.913671875 2.1  137.233671875 0.27Q 135.543671875-1.56  134.573671875-4.2ZM 199.711640625 15.72L 212.111640625 15.72L 219.581640625 1.81L 192.331640625-39.79L 181.881640625-39.79L 181.881640625-47.12L 215.231640625-47.12L 215.231640625-39.79L 204.881640625-39.79L 225.051640625-8.35L 241.941640625-39.79L 230.081640625-39.79L 230.081640625-47.12L 262.601640625-47.12L 262.601640625-39.79L 252.681640625-39.79L 218.411640625 23.05L 199.711640625 23.05L 199.711640625 15.72ZM 202.641640625 26.46L 220.951640625 26.46L 255.271640625-36.38L 266.111640625-36.38L 266.111640625-44.38L 268.061640625-44.38L 268.061640625-34.52L 256.391640625-34.52L 222.171640625 28.32L 202.641640625 28.32L 202.641640625 26.46ZM 225.441640625-14.99L 211.771640625-36.38L 218.751640625-36.38L 218.751640625-44.38L 220.701640625-44.38L 220.701640625-34.52L 215.231640625-34.52L 226.51164062499998-16.94L 225.441640625-14.99ZM 232.471640625-34.52L 232.471640625-36.38L 237.551640625-36.38L 236.571640625-34.52L 232.471640625-34.52ZM 184.811640625-34.52L 184.811640625-36.38L 191.891640625-36.38L 193.111640625-34.52L 184.811640625-34.52Z"></path>
</svg>